id,date,x,y
1,20110402,-111.53608010030214,41.92710756946264
2,20110402,-111.60284898069213,41.85454610864931
3,20110402,-111.706891186305,41.720894964863085
4,20110403,-111.3815897801985,41.62929274437927
5,20110403,-111.52033953486426,41.712386853265336
6,20110404,-111.33270386314429,41.730191035641276
7,20110404,-111.52484881567838,41.79885479901126
8,20110404,-111.24036021820267,41.80455438679392
9,20110405,-111.27230936768346,41.850102969621695
10,20110405,-111.10328365908234,41.873189157075586
11,20110405,-111.20393666440104,41.934830653214966
12,20110406,-111.11235983601487,41.97297254529716
13,20110406,-111.13749889627552,41.818029400462855
14,20110406,-111.13470721238252,41.698278979577005
15,20110407,-111.20788382501085,41.58126509722697
16,20110407,-111.35852987367677,41.58279494208516
17,20110407,-111.38478035445102,41.52663307470307
18,20110408,-111.32261281417955,41.487855148259804
19,20110409,-111.2429362870799,41.476645370936374
20,20110409,-111.17859898947366,41.51953437501984
21,20110410,-111.2546419815097,41.56121146093224
22,20110411,-111.31169255423879,41.58293145414236
23,20110411,-111.51548785059705,41.58124791341526
24,20110412,-111.67968141493063,41.546178279663025
25,20110412,-111.77398851816427,41.60355942043286
26,20110413,-111.81014322530292,41.659386068465416
27,20110413,-111.66052444568305,41.65273980533731
28,20110413,-111.52111692537956,41.651555507256475
29,20110414,-111.58387851972735,41.72538756602508
30,20110414,-111.65706152396017,41.81053001681412
31,20110414,-111.71386169710912,41.89192573634412
32,20110415,-111.71102709797174,41.98032951851561
33,20110415,-111.62359944869978,42.02740634301427
34,20110415,-111.50503723081009,42.02513811955409
35,20110416,-111.63827707258305,41.96555090522101
36,20110416,-111.44653868335399,41.861913044396104
37,20110416,-111.40662744232962,41.78317697850064
38,20110417,-111.35526421804155,41.90975182224913
39,20110417,-111.35075829449035,42.016209441951425
40,20110417,-111.30492591948247,41.75878092800713
41,20110418,-111.86685609227587,41.91843404972612
42,20110418,-111.6753128489797,41.49107743588692
